^C:\USERS\10642\SOURCE\REPOS\AMS562PJ3\AMS562PJ3\PCH.CPP
C:\USERS\10642\SOURCE\REPOS\AMS562PJ3\AMS562PJ3\DEBUG\AMS562PJ3.PCH
C:\USERS\10642\SOURCE\REPOS\AMS562PJ3\AMS562PJ3\DEBUG\VC141.PDB
C:\USERS\10642\SOURCE\REPOS\AMS562PJ3\AMS562PJ3\DEBUG\VC141.IDB
C:\USERS\10642\SOURCE\REPOS\AMS562PJ3\AMS562PJ3\DEBUG\PCH.OBJ
^C:\USERS\10642\SOURCE\REPOS\AMS562PJ3\AMS562PJ3\AMS562PJ3.CPP
C:\USERS\10642\SOURCE\REPOS\AMS562PJ3\AMS562PJ3\DEBUG\VC141.PDB
C:\USERS\10642\SOURCE\REPOS\AMS562PJ3\AMS562PJ3\DEBUG\VC141.IDB
C:\USERS\10642\SOURCE\REPOS\AMS562PJ3\AMS562PJ3\DEBUG\AMS562PJ3.OBJ
