^C:\USERS\10642\SOURCE\REPOS\AMS562PJ3\AMS562PJ3\DEBUG\AMS562PJ3.OBJ|C:\USERS\10642\SOURCE\REPOS\AMS562PJ3\AMS562PJ3\DEBUG\PCH.OBJ
D:\WINDOWS KITS\10\LIB\10.0.17134.0\UM\X86\KERNEL32.LIB
D:\WINDOWS KITS\10\LIB\10.0.17134.0\UM\X86\USER32.LIB
D:\WINDOWS KITS\10\LIB\10.0.17134.0\UM\X86\GDI32.LIB
D:\WINDOWS KITS\10\LIB\10.0.17134.0\UM\X86\WINSPOOL.LIB
D:\WINDOWS KITS\10\LIB\10.0.17134.0\UM\X86\COMDLG32.LIB
D:\WINDOWS KITS\10\LIB\10.0.17134.0\UM\X86\ADVAPI32.LIB
D:\WINDOWS KITS\10\LIB\10.0.17134.0\UM\X86\SHELL32.LIB
D:\WINDOWS KITS\10\LIB\10.0.17134.0\UM\X86\OLE32.LIB
D:\WINDOWS KITS\10\LIB\10.0.17134.0\UM\X86\OLEAUT32.LIB
D:\WINDOWS KITS\10\LIB\10.0.17134.0\UM\X86\UUID.LIB
D:\WINDOWS KITS\10\LIB\10.0.17134.0\UM\X86\ODBC32.LIB
D:\WINDOWS KITS\10\LIB\10.0.17134.0\UM\X86\ODBCCP32.LIB
C:\USERS\10642\SOURCE\REPOS\AMS562PJ3\AMS562PJ3\DEBUG\AMS562PJ3.OBJ
C:\USERS\10642\SOURCE\REPOS\AMS562PJ3\AMS562PJ3\DEBUG\PCH.OBJ
C:\WINDOWS\SYSTEM32\TZRES.DLL
C:\WINDOWS\GLOBALIZATION\SORTING\SORTDEFAULT.NLS
C:\PROGRAM FILES (X86)\MICROSOFT VISUAL STUDIO\2017\COMMUNITY\VC\TOOLS\MSVC\14.15.26726\LIB\X86\MSVCPRTD.LIB
C:\PROGRAM FILES (X86)\MICROSOFT VISUAL STUDIO\2017\COMMUNITY\VC\TOOLS\MSVC\14.15.26726\LIB\X86\MSVCRTD.LIB
C:\PROGRAM FILES (X86)\MICROSOFT VISUAL STUDIO\2017\COMMUNITY\VC\TOOLS\MSVC\14.15.26726\LIB\X86\OLDNAMES.LIB
C:\PROGRAM FILES (X86)\MICROSOFT VISUAL STUDIO\2017\COMMUNITY\VC\TOOLS\MSVC\14.15.26726\LIB\X86\VCRUNTIMED.LIB
D:\WINDOWS KITS\10\LIB\10.0.17134.0\UCRT\X86\UCRTD.LIB
